%YAML 1.1
%TAG !u! tag:unity3d.com,2011:
--- !u!114 &11400000
MonoBehaviour:
  m_ObjectHideFlags: 32
  m_CorrespondingSourceObject: {fileID: 0}
  m_PrefabInstance: {fileID: 0}
  m_PrefabAsset: {fileID: 0}
  m_GameObject: {fileID: 0}
  m_Enabled: 1
  m_EditorHideFlags: 0
  m_Script: {fileID: 11500000, guid: 6c8eb199aac1f4b168ae3ed655682173, type: 3}
  m_Name: Defaul Alt
  m_EditorClassIdentifier: 
  backgroundImage: {fileID: 21300000, guid: 2f11ff5ae1c994f728ce7d1508b26650, type: 3}
  texture: {fileID: 8400000, guid: eba642532e2db43c5aafe7ecdad4dba8, type: 2}
  color: {r: 0.8509804, g: 0, b: 0.654902, a: 1}
  color2: {r: 0.62352943, g: 1, b: 0, a: 1}
  gradient:
    serializedVersion: 2
    key0: {r: 1, g: 1, b: 1, a: 1}
    key1: {r: 1, g: 1, b: 1, a: 1}
    key2: {r: 0, g: 0, b: 0, a: 0}
    key3: {r: 0, g: 0, b: 0, a: 0}
    key4: {r: 0, g: 0, b: 0, a: 0}
    key5: {r: 0, g: 0, b: 0, a: 0}
    key6: {r: 0, g: 0, b: 0, a: 0}
    key7: {r: 0, g: 0, b: 0, a: 0}
    ctime0: 0
    ctime1: 65535
    ctime2: 0
    ctime3: 0
    ctime4: 0
    ctime5: 0
    ctime6: 0
    ctime7: 0
    atime0: 0
    atime1: 65535
    atime2: 0
    atime3: 0
    atime4: 0
    atime5: 0
    atime6: 0
    atime7: 0
    m_Mode: 0
    m_NumColorKeys: 2
    m_NumAlphaKeys: 2
  _itemName: Default Alt
  _buttonText: Unequip
  _layer:
    serializedVersion: 2
    m_Bits: 0
  cost: 0
  equipped: 1
  purchased: 1
  itemType: 4
